Chapter 2 Electricity profiles | An Electricity Profiles
…
profile <- 
  read_excel("raw_data/raw_data_profiles/02_Hourly Sale_NetGen_2019.xlsx",
           sheet = "Load Curve",
           range = "C3:D17523"
            ) %>% 
  select(datetime = `Date/Time`, MEA) %>% 
  mutate(date = date(datetime),
         time = format(as.POSIXct(datetime),"%H:%M:%S"),
         year = year(datetime),
         month = month(datetime),
         day = day(datetime)) %>% 
  select(datetime, date, time, year, month, day, MEA)
profile

## # A tibble: 17,520 × 7
##    datetime            date       time      year month   day   MEA
##    <dttm>              <date>     <chr>    <dbl> <dbl> <int> <dbl>
##  1 2019-01-01 00:00:00 2019-01-01 00:00:00  2019     1     1 3361.
##  2 2019-01-01 00:30:00 2019-01-01 00:30:00  2019     1     1 3244.
##  3 2019-01-01 01:00:00 2019-01-01 01:00:00  2019     1     1 3200.
##  4 2019-01-01 01:30:00 2019-01-01 01:30:00  2019     1     1 3153.
##  5 2019-01-01 02:00:00 2019-01-01 02:00:00  2019     1     1 3086.
##  6 2019-01-01 02:30:00 2019-01-01 02:30:00  2019     1     1 3005.
##  7 2019-01-01 03:00:00 2019-01-01 03:00:00  2019     1     1 2929.
##  8 2019-01-01 03:30:00 2019-01-01 03:30:00  2019     1     1 2858.
##  9 2019-01-01 04:00:00 2019-01-01 04:00:00  2019     1     1 2801.
## 10 2019-01-01 04:30:00 2019-01-01 04:30:00  2019     1     1 2760.
## # ℹ 17,510 more rows
…
